"First Name","Last Name","Title","Company","Email(default)","Phone(default)","Address","City","State","Country","Zip Code","Website(default)","Tags","Service Needed"
"Harsh Vijaybhai Shingala",,,,"harsh.shingala@icloud.com","0800 000 3120",,"rajkot","gj","IN",,,"buy-bandwidth",
"Sonagra mahendra hasmukhbhai",,,,"sonagramahendra27121998@gmail.com","09870046922","Sayla",,,,,,"start-business",
